{
  "ExtendedData": {
    "inputs": [
      "https://sales-ws.farfetch.com/pub/apistock.asmx"
    ],
    "collectionTypes": [
      "System.Array",
      "System.Collections.Generic.Dictionary`2"
    ],
    "namespaceMappings": [
      "*, APIStock"
    ],
    "targetFramework": "net5.0",
    "typeReuseMode": "All"
  }
}